{
	"info": {
		"_postman_id": "644b555d-b0e9-497c-971a-6c9b8b64c342",
		"name": "TECH_U_PROJECT_BACK",
		"schema": "https://schema.getpostman.com/json/collection/v2.1.0/collection.json"
	},
	"item": [
		{
			"name": "LOGIN",
			"request": {
				"method": "POST",
				"header": [
					{
						"key": "Content-Type",
						"name": "Content-Type",
						"value": "application/json",
						"type": "text"
					}
				],
				"body": {
					"mode": "raw",
					"raw": "{\n    \"usr_email\": \"jordy.villazana@bbva.com\",\n    \"usr_password\": \"aa112233\"\n}"
				},
				"url": {
					"raw": "http://localhost:3000/apiperu/v1/login/",
					"protocol": "http",
					"host": [
						"localhost"
					],
					"port": "3000",
					"path": [
						"apiperu",
						"v1",
						"login",
						""
					]
				}
			},
			"response": []
		},
		{
			"name": "LOGOUT",
			"request": {
				"method": "POST",
				"header": [
					{
						"key": "Content-Type",
						"name": "Content-Type",
						"value": "application/json",
						"type": "text"
					}
				],
				"body": {
					"mode": "raw",
					"raw": "{\n    \"usr_id\": 1\n}"
				},
				"url": {
					"raw": "http://localhost:3000/apiperu/v1/logout",
					"protocol": "http",
					"host": [
						"localhost"
					],
					"port": "3000",
					"path": [
						"apiperu",
						"v1",
						"logout"
					]
				}
			},
			"response": []
		},
		{
			"name": "GET USERS",
			"request": {
				"auth": {
					"type": "bearer",
					"bearer": [
						{
							"key": "token",
							"value": "eyJ0eXAiOiJKV1QiLCJhbGciOiJIUzI1NiJ9.eyJzdWIiOiI3NDIwMTcxNCIsImlhdCI6MTU0ODQ2MjI0OH0.qHCSkfXUB3G6Lclb0tXCoEAyxaZDXbNX2MobSOdVdaA",
							"type": "string"
						}
					]
				},
				"method": "GET",
				"header": [],
				"body": {
					"mode": "raw",
					"raw": ""
				},
				"url": {
					"raw": "http://localhost:3000/apiperu/v1/users/",
					"protocol": "http",
					"host": [
						"localhost"
					],
					"port": "3000",
					"path": [
						"apiperu",
						"v1",
						"users",
						""
					]
				}
			},
			"response": []
		},
		{
			"name": "POST USERS",
			"request": {
				"auth": {
					"type": "bearer",
					"bearer": [
						{
							"key": "token",
							"value": "eyJ0eXAiOiJKV1QiLCJhbGciOiJIUzI1NiJ9.eyJzdWIiOiI3NDIwMTcxNCIsImlhdCI6MTU0ODQ2MjI0OH0.qHCSkfXUB3G6Lclb0tXCoEAyxaZDXbNX2MobSOdVdaA",
							"type": "string"
						}
					]
				},
				"method": "POST",
				"header": [
					{
						"key": "Content-Type",
						"name": "Content-Type",
						"value": "application/json",
						"type": "text"
					}
				],
				"body": {
					"mode": "raw",
					"raw": "{\n    \"usr_type_id_card\": \"DNI\",\n    \"usr_id_card\": \"74201730\",\n    \"usr_name\": \"Jordy \",\n    \"usr_last_name\": \"Villazana Astucuri\",\n    \"usr_email\": \"jordy.villazana@yahoo.com\",\n    \"usr_password\": \"cc112233\",\n    \"usr_phone\": \"958639740\",\n    \"usr_ip_address\": \"88.4.134.126\"\n}"
				},
				"url": {
					"raw": "http://localhost:3000/apiperu/v1/users/",
					"protocol": "http",
					"host": [
						"localhost"
					],
					"port": "3000",
					"path": [
						"apiperu",
						"v1",
						"users",
						""
					]
				}
			},
			"response": []
		},
		{
			"name": "PUT USER",
			"request": {
				"auth": {
					"type": "bearer",
					"bearer": [
						{
							"key": "token",
							"value": "eyJ0eXAiOiJKV1QiLCJhbGciOiJIUzI1NiJ9.eyJzdWIiOiI3NDIwMTcxNCIsImlhdCI6MTU0ODQ2MjI0OH0.qHCSkfXUB3G6Lclb0tXCoEAyxaZDXbNX2MobSOdVdaA",
							"type": "string"
						}
					]
				},
				"method": "PUT",
				"header": [
					{
						"key": "Content-Type",
						"name": "Content-Type",
						"value": "application/json",
						"type": "text"
					}
				],
				"body": {
					"mode": "raw",
					"raw": "{\n\t\"usr_password\": \"aa112233\"\n}"
				},
				"url": {
					"raw": "http://localhost:3000/apiperu/v1/users/74201714",
					"protocol": "http",
					"host": [
						"localhost"
					],
					"port": "3000",
					"path": [
						"apiperu",
						"v1",
						"users",
						"74201714"
					]
				}
			},
			"response": []
		},
		{
			"name": "DeleteUser",
			"request": {
				"auth": {
					"type": "bearer",
					"bearer": [
						{
							"key": "token",
							"value": "eyJ0eXAiOiJKV1QiLCJhbGciOiJIUzI1NiJ9.eyJzdWIiOiI3NDIwMTcxNCIsImlhdCI6MTU0ODQ2MjI0OH0.qHCSkfXUB3G6Lclb0tXCoEAyxaZDXbNX2MobSOdVdaA",
							"type": "string"
						}
					]
				},
				"method": "DELETE",
				"header": [],
				"body": {
					"mode": "raw",
					"raw": ""
				},
				"url": {
					"raw": "http://localhost:3000/apiperu/v1/users/74201714",
					"protocol": "http",
					"host": [
						"localhost"
					],
					"port": "3000",
					"path": [
						"apiperu",
						"v1",
						"users",
						"74201714"
					]
				}
			},
			"response": []
		},
		{
			"name": "GET ACCOUNTS",
			"request": {
				"auth": {
					"type": "bearer",
					"bearer": [
						{
							"key": "token",
							"value": "eyJ0eXAiOiJKV1QiLCJhbGciOiJIUzI1NiJ9.eyJzdWIiOiI3NDIwMTcxNCIsImlhdCI6MTU0ODQ2MjI0OH0.qHCSkfXUB3G6Lclb0tXCoEAyxaZDXbNX2MobSOdVdaA",
							"type": "string"
						}
					]
				},
				"method": "GET",
				"header": [],
				"body": {
					"mode": "raw",
					"raw": ""
				},
				"url": {
					"raw": "http://localhost:3000/apiperu/v1/accounts/",
					"protocol": "http",
					"host": [
						"localhost"
					],
					"port": "3000",
					"path": [
						"apiperu",
						"v1",
						"accounts",
						""
					]
				}
			},
			"response": []
		},
		{
			"name": "GET ACCOUNTS BY USER",
			"request": {
				"auth": {
					"type": "bearer",
					"bearer": [
						{
							"key": "token",
							"value": "eyJ0eXAiOiJKV1QiLCJhbGciOiJIUzI1NiJ9.eyJzdWIiOiI3NDIwMTcxNCIsImlhdCI6MTU0ODQ2MjI0OH0.qHCSkfXUB3G6Lclb0tXCoEAyxaZDXbNX2MobSOdVdaA",
							"type": "string"
						}
					]
				},
				"method": "GET",
				"header": [],
				"body": {
					"mode": "raw",
					"raw": ""
				},
				"url": {
					"raw": "http://localhost:3000/apiperu/v1/users/74201714/accounts",
					"protocol": "http",
					"host": [
						"localhost"
					],
					"port": "3000",
					"path": [
						"apiperu",
						"v1",
						"users",
						"74201714",
						"accounts"
					]
				}
			},
			"response": []
		},
		{
			"name": "POST ACCOUNT",
			"request": {
				"auth": {
					"type": "bearer",
					"bearer": [
						{
							"key": "token",
							"value": "eyJ0eXAiOiJKV1QiLCJhbGciOiJIUzI1NiJ9.eyJzdWIiOiI3NDIwMTcxNCIsImlhdCI6MTU0ODQ2MjI0OH0.qHCSkfXUB3G6Lclb0tXCoEAyxaZDXbNX2MobSOdVdaA",
							"type": "string"
						}
					]
				},
				"method": "POST",
				"header": [
					{
						"key": "Content-Type",
						"name": "Content-Type",
						"value": "application/json",
						"type": "text"
					}
				],
				"body": {
					"mode": "raw",
					"raw": "{\n    \"acc_id\": \"00110774480255857730\",\n    \"acc_entity\": \"0011\",\n    \"acc_office\": \"0774\",\n    \"acc_check_digit\": \"48\",\n    \"acc_type\": \"GANADORA\",\n    \"acc_number\": \"55857730\",\n    \"acc_complete\": \"00110774480255857730\",\n    \"acc_estatus\": \"A1\",\n    \"acc_divisa\": \"PEN\",\n    \"acc_dispo_mount\": 10000.58,\n    \"acc_cont_mount\": 10000.58\n}"
				},
				"url": {
					"raw": "http://localhost:3000/apiperu/v1/users/74201714/accounts",
					"protocol": "http",
					"host": [
						"localhost"
					],
					"port": "3000",
					"path": [
						"apiperu",
						"v1",
						"users",
						"74201714",
						"accounts"
					]
				}
			},
			"response": []
		},
		{
			"name": "PUT ACCOUNT ",
			"request": {
				"auth": {
					"type": "bearer",
					"bearer": [
						{
							"key": "token",
							"value": "eyJ0eXAiOiJKV1QiLCJhbGciOiJIUzI1NiJ9.eyJzdWIiOiI3NDIwMTcxNCIsImlhdCI6MTU0ODQ2MjI0OH0.qHCSkfXUB3G6Lclb0tXCoEAyxaZDXbNX2MobSOdVdaA",
							"type": "string"
						}
					]
				},
				"method": "PUT",
				"header": [
					{
						"key": "Content-Type",
						"name": "Content-Type",
						"value": "application/json",
						"type": "text"
					}
				],
				"body": {
					"mode": "raw",
					"raw": "{\n                \"acc_id\": \"00110774480255857725\",\n                \"acc_entity\": \"0011\",\n                \"acc_office\": \"0774\",\n                \"acc_check_digit\": \"48\",\n                \"acc_type\": \"GANADORA\",\n                \"acc_number\": \"55857725\",\n                \"acc_complete\": \"00110774480255857725\",\n                \"acc_estatus\": \"A1\",\n                \"acc_divisa\": \"USD\",\n                \"acc_dispo_mount\": 10000.58,\n                \"acc_cont_mount\": 10000.58\n}\n"
				},
				"url": {
					"raw": "http://localhost:3000/apiperu/v1/users/74201714/accounts/00110774480255857720",
					"protocol": "http",
					"host": [
						"localhost"
					],
					"port": "3000",
					"path": [
						"apiperu",
						"v1",
						"users",
						"74201714",
						"accounts",
						"00110774480255857720"
					]
				}
			},
			"response": []
		},
		{
			"name": "DELETE ACCOUNT ",
			"request": {
				"auth": {
					"type": "bearer",
					"bearer": [
						{
							"key": "token",
							"value": "eyJ0eXAiOiJKV1QiLCJhbGciOiJIUzI1NiJ9.eyJzdWIiOiI3NDIwMTcxNCIsImlhdCI6MTU0ODQ2MjI0OH0.qHCSkfXUB3G6Lclb0tXCoEAyxaZDXbNX2MobSOdVdaA",
							"type": "string"
						}
					]
				},
				"method": "DELETE",
				"header": [
					{
						"key": "Content-Type",
						"name": "Content-Type",
						"value": "application/json",
						"type": "text"
					}
				],
				"body": {
					"mode": "raw",
					"raw": ""
				},
				"url": {
					"raw": "http://localhost:3000/apiperu/v1/users/74201714/accounts/1",
					"protocol": "http",
					"host": [
						"localhost"
					],
					"port": "3000",
					"path": [
						"apiperu",
						"v1",
						"users",
						"74201714",
						"accounts",
						"1"
					]
				}
			},
			"response": []
		},
		{
			"name": "GET MOVEMENTS BY ACCOUNT",
			"request": {
				"auth": {
					"type": "bearer",
					"bearer": [
						{
							"key": "token",
							"value": "eyJ0eXAiOiJKV1QiLCJhbGciOiJIUzI1NiJ9.eyJzdWIiOiI3NDIwMTcxNCIsImlhdCI6MTU0ODQ2MjI0OH0.qHCSkfXUB3G6Lclb0tXCoEAyxaZDXbNX2MobSOdVdaA",
							"type": "string"
						}
					]
				},
				"method": "GET",
				"header": [],
				"body": {
					"mode": "raw",
					"raw": ""
				},
				"url": {
					"raw": "http://localhost:3000/apiperu/v1/users/74201714/accounts/00110774480266294481/movements",
					"protocol": "http",
					"host": [
						"localhost"
					],
					"port": "3000",
					"path": [
						"apiperu",
						"v1",
						"users",
						"74201714",
						"accounts",
						"00110774480266294481",
						"movements"
					]
				}
			},
			"response": []
		},
		{
			"name": "POST MOVEMENT",
			"request": {
				"auth": {
					"type": "bearer",
					"bearer": [
						{
							"key": "token",
							"value": "eyJ0eXAiOiJKV1QiLCJhbGciOiJIUzI1NiJ9.eyJzdWIiOiI3NDIwMTcxNCIsImlhdCI6MTU0ODQ2MjI0OH0.qHCSkfXUB3G6Lclb0tXCoEAyxaZDXbNX2MobSOdVdaA",
							"type": "string"
						}
					]
				},
				"method": "POST",
				"header": [
					{
						"key": "Content-Type",
						"name": "Content-Type",
						"value": "application/json",
						"type": "text"
					}
				],
				"body": {
					"mode": "raw",
					"raw": "{\"movements\":{\"mov_id\": \"1029\",\"mov_number\": \"1029\",\"mov_date\": \"20/12/2018\",\"mov_description\": \"Transferencias\",\"mov_channel\": \"0427\",\"mov_mount\": 6.00,\"mov_divisa\": \"PEN\"}}"
				},
				"url": {
					"raw": "http://localhost:3000/apiperu/v1/users/74201714/accounts/00110774480255857720/movements",
					"protocol": "http",
					"host": [
						"localhost"
					],
					"port": "3000",
					"path": [
						"apiperu",
						"v1",
						"users",
						"74201714",
						"accounts",
						"00110774480255857720",
						"movements"
					]
				}
			},
			"response": []
		}
	]
}